{
  "log": {
    "loglevel": "debug"
  },
  "inbound": {
    "port": 443,
    "protocol": "vmess",
    "settings": {
      "clients": [
        {
          "id": "d85f0272-a782-11eb-bcbc-0242ac130002",
          "level": 1,
          "alterId": 100
        }
      ]
    },
    "streamSettings": {
      "network": "kcp"
    },
    "detour": {
      "to": "vmess-detour-469550"
    }
  },
  "outbound": {
    "protocol": "freedom",
    "settings": {}
  },
  "inboundDetour": [
    {
      "protocol": "vmess",
      "port": "10000-10010",
      "tag": "vmess-detour-469550",
      "settings": {},
      "allocate": {
        "strategy": "random",
        "concurrency": 5,
        "refresh": 5
      },
      "streamSettings": {
        "network": "kcp"
      }
    }
  ],
  "outboundDetour": [
    {
      "protocol": "blackhole",
      "settings": {},
      "tag": "blocked"
    }
  ],
  "routing": {
    "strategy": "rules",
    "settings": {
      "rules": [
        {
          "type": "field",
          "ip": [
            "0.0.0.0/8",
            "10.0.0.0/8",
            "100.64.0.0/10",
            "127.0.0.0/8",
            "169.254.0.0/16",
            "172.16.0.0/12",
            "192.0.0.0/24",
            "192.0.2.0/24",
            "192.168.0.0/16",
            "198.18.0.0/15",
            "198.51.100.0/24",
            "203.0.113.0/24",
            "::1/128",
            "fc00::/7",
            "fe80::/10"
          ],
          "outboundTag": "blocked"
        }
      ]
    }
  }
}
